{
  "cviceni": {
    "version": {
      "global": "<%= version %>",
      "content": 1
    },
    "katalog": ["test"],
    "language": "cs",
    "slug": "",
    "nazev": "",
    "autor": [""],
    "casovaOsa": {
      "roky": [
        999
      ],
      "epocha": {
        "svetova": [""]
      }
    },
    "klicovaSlova": [""],
    "anotace": {
      "ucitel": "",
      "verejna": ""
    },
    "obtiznost": "nizka",
    "trvani": 30,
    "funkce": [
      "lupa",
      "cteni",
      "text"
    ],
    "pdf": {
      "doporucenyPostup": ""
    },
    "uvodniObrazek": ""
  },
  "slajd": [
    {
      "zadani": {
        "hlavni": "",
        "rozsirujici": ""
      },
      "napoveda": {
        "aktivity": [
        ],
        "text": ""
      },
      "popisky": [
      ]
    }
  ]
}
