{
  "cviceni": {
    "version": {
      "global": "<%= version %>",
      "content": 1
    },
    "katalog": ["test"],
    "language": "cs",
    "slug": "co-se-stalo-v-little-rock",
    "nazev": "Co se stalo v Little Rock?",
    "autor": ["Jaroslav Najbert"],
    "casovaOsa": {
      "roky": [
        1957
      ],
      "epocha": {
        "svetova": [""]
      }
    },
    "klicovaSlova": [
      "poválečné světové dějiny",
      "lidská práva",
      "rasismus",
      "vztah k minulosti",
      "formulujeme hypotézu"
    ],
    "anotace": {
      "ucitel": "",
      "verejna": "Co dělají a co drží v rukou? V hlavním městě Arkansasu na jihu Spojených států amerických stojí zvláštní pomník události z 50. let 20. století. Zjistěte, co připomíná!"
    },
    "obtiznost": "stredni",
    "trvani": 30,
    "funkce": ["lupa", "svg", "text"],
    "pdf": {
      "doporucenyPostup": "co-se-stalo-v-little-rock.pdf"
    },
    "uvodniObrazek": "co-se-stalo-v-little-rock/pic-00-1280w.jpg",
    "id": 113
  },
  "slajd": [
    {
      "zadani": {
        "hlavni": "Prohlédněte si fotografii.",
        "rozsirujici": ""
      },
      "napoveda": {
        "aktivity": ["lupa"],
        "text": "Při kliknutí levým tlačítkem do obrazu lupa přiblíží část obrazu ve&nbsp;výřezu."
      },
      "prameny": ["co-se-stalo-v-little-rock/pic-00-1280w.jpg"],
      "popisky": [
        "Little Rock Nine Monument před budovou kapitolu (sídla vlády) amerického státu Arkansas, Little Rock. Foto Cliff. Zdroj: Flickr"
      ]
    },
    {
      "class": "half-slide-previous",
      "zadani": {
        "hlavni": "Označte na fotografii tři prvky, které vám pomohou určit, čemu je pomník věnován.",
        "rozsirujici": ""
      },
      "napoveda": {
        "aktivity": ["svg"],
        "text": "Kliknutím na snímek levým tlačítkem myši označujete bod. Nakliknutím na bod pravým tlačítkem otevřete menu s nabídkou úkonů: (T) doplnit textový komentář, (X) smazat nakliknutý objekt."
      },
      "svg": {
        "soubory": [
          {
            "id": "svg-1",
            "soubor": "co-se-stalo-v-little-rock/pic-00-1280w.jpg",
            "funkce": ["text", "znacky"],
            "barvy": ["blue"]
          }
        ]
      },
      "popisky": [
        "Little Rock Nine Monument před budovou kapitolu (sídla vlády) amerického státu Arkansas, Little Rock. Foto Cliff. Zdroj: Flickr"
      ]
    },
    {
      "class": ["half-slide-active"],
      "zadani": {
        "hlavni": "Co podle vás pomník připomíná?",
        "rozsirujici": ""
      },
      "napoveda": {
        "aktivity": ["text"],
        "text": "Do boxu pro text zapisujete odpověď na otázku, nebo jiný komentář (dle zadání)."
      },
      "uzivatelskyText": {
        "otazky": [
          {
            "id": "otazka-1",
            "zadani": "",
            "instrukce": "Myslím si, že…",
            "minDelka": 2,
            "maxDelka": 400
          }
        ]
      }
    },
    {
      "class": ["half-slide-previous"],
      "zadani": {
        "hlavni": "Prozkoumejte další prameny. Nově zjištěné informace doplňte do fotografie červeně.",
        "rozsirujici": ""
      },
      "napoveda": {
        "aktivity": ["lupa", "svg"],
        "text": "Při kliknutí levým tlačítkem do obrazu lupa přiblíží část obrazu ve výřezu. Kliknutím na snímek levým tlačítkem myši označujete bod. Nakliknutím na bod pravým tlačítkem otevřete menu s nabídkou úkonů: (T) doplnit textový komentář, (X) smazat nakliknutý objekt."
      },
      "svg": {
        "nastaveni": {
          "layout": "horizontalni"
        },
        "galerie": [
          {
            "soubor": "co-se-stalo-v-little-rock/pic-01-1024h.jpg",
            "popisek": "První den nového školního roku na střední škole Little Rock Central High School ve městě Little Rock v Arkansasu, USA, 4. září 1957. Zdroj: Bettmann Archive (Getty Images)"
          },
          {
            "soubor": "co-se-stalo-v-little-rock/pic-02-1024h.jpg",
            "popisek": "Titulní stránka časopisu Time s fotografií parašutistů, které prezident D. Eisenhower povolal do Little Rocku k vynucení desegregace školy, 7. října 1957. S nástupem afroamerických studentů do školy určené původně pro studenty bílé barvy pleti nesouhlasil místní guvernér Orval Faubus. Pověřil národní gardu, aby zabránila studentům ve vstupu s odůvodněním, že je nutné předcházet „nebezpečí veřejných nepokojů”. Zdroj: Wikimedia"
          },
          {
            "soubor": "co-se-stalo-v-little-rock/pic-03-1024h.jpg",
            "popisek": "Dopis Marylin Anderson prezidentu Dwightu Eisenhowerovi, 1957. Zdroj: National Archives, Dwight D. Eisenhower Library"
          },
          {
            "typ": "text",
            "objekt": "„Slyšela jsem, že dostáváte dopisy, které říkají, že neděláte dobře, když společně mícháte bílé a černé děti ve škole v Little Rock v Arkansasu. Snad budete mít čas přečíst si můj dopis. Já s vámi souhlasím. Lidé v Little Rock by se měli stydět. [...] Budu se za vás modlit, jak nejvíce to půjde, a stejně udělají i ostatní děti v naší 6. třídě.”",
            "popisek": "Úryvek z dopisu Marylin Anderson prezidentu Dwightu Eisenhowerovi, 1957. Zdroj: National Archives, Dwight D. Eisenhower Library"
          },
          {
            "soubor": "co-se-stalo-v-little-rock/pic-04-1280w.jpg",
            "popisek": "Protest před budovou kapitolu (sídla vlády) státu Arkansas ve městě Little Rock poté, co federální soud definitivně potvrdil otevření středních škol ve městě pro všechny studenty bez ohledu na barvu pleti, 20. srpna 1959. Foto John T. Bledsoe. Zdroj: Library of Congress"
          }
        ],
        "soubory": [
          {
            "id": "svg-2",
            "soubor": "co-se-stalo-v-little-rock/pic-00-1280w.jpg",
            "funkce": ["text", "znacky"],
            "duplikovat": ["svg-1"],
            "barvy": ["red"]
          }
        ]
      },
      "popisky": [""]
    },
    {
      "class": ["half-slide-active"],
      "zadani": {
        "hlavni": "Odpovězte na otázky.",
        "rozsirujici": ""
      },
      "napoveda": {
        "aktivity": ["text"],
        "text": "Do boxu pro text zapisujete odpověď na otázku, nebo jiný komentář (dle zadání)."
      },
      "uzivatelskyText": {
        "otazky": [
          {
            "id": "otazka-2",
            "zadani": "Co se odehrálo ve městě Little Rock?",
            "instrukce": "Myslím si, že…",
            "minDelka": 10,
            "optimum": 150,
            "maxDelka": 400
          },
          {
            "id": "otazka-3",
            "zadani": "Co a jakým způsobem připomíná pomník v Little Rock?",
            "instrukce": "Myslím si, že…",
            "minDelka": 10,
            "optimum": 150,
            "maxDelka": 400
          }
        ]
      }
    }
  ]
}
