{
  "cviceni": {
    "version": {
      "global": "<%= version %>",
      "content": 1
    },
    "katalog": ["test"],
    "language": "cs",
    "slug": "jak-zobrazila-hospodarskou-krizi",
    "nazev": "Jak zobrazila hospodářskou krizi?",
    "autor": ["Kamil Činátl"],
    "klicovaSlova": [
      "hospodářská krize",
      "chudoba",
      "paměť",
      "vztah k minulosti",
      "vidíme pod povrch pramene"
    ],
    "cas": [1936],
    "epocha": {
      "svetova": ["Od velké hospodářské krize k válce"]
    },
    "anotace": {
      "ucitel": "Žáci pracují s fotografiemi chudé rodiny v době velké hospodářské krize v USA. Označují na nich projevy chudoby. Srovnávají různé verze snímků a zamýšlejí se nad tím, proč se fotografie „Migrant Mother“ stala symbolem krize.",
      "verejna": "Chcete nahlédnout do provizorního tábora nezaměstnaných v době hospodářské krize v USA? Dokážete vysvětlit, proč se snímek chudé matky s dětmi světově proslavil?"
    },
    "obtiznost": "stredni",
    "trvani": 30,
    "funkce": ["lupa", "svg", "text"],
    "pdf": {
      "doporucenyPostup": "jak-zobrazila-hospodarskou-krizi.pdf"
    },
    "uvodniObrazek": "jak-zobrazila-hospodarskou-krizi/pic-00-1280w.jpg",
    "id": 90
  },
  "slajd": [
    {
      "zadani": {
        "hlavni": "Prohlédněte si fotografie z doby hospodářské krize.",
        "rozsirujici": ""
      },
      "napoveda": {
        "aktivity": ["lupa"],
        "text": "Při kliknutí levým tlačítkem do obrazu lupa přiblíží část obrazu ve&nbsp;výřezu."
      },
      "prameny": [
        "jak-zobrazila-hospodarskou-krizi/pic-00-1280w.jpg",
        "jak-zobrazila-hospodarskou-krizi/pic-01-1024h.jpg"
      ],
      "popisky": [
        "Portrét Florence Thompson, který fotografovala Dorothea Lange, se proslavil pod názvem „Migrant Mother” a stal se symbolem hospodářské krize. Poté, co byla fotografie zveřejněna v San Francisco News, zaslali místní politici do tábora potraviny. Nyní patří k ikonickým snímkům dějin 20. století. Foto Dorothea Lange. Zdroj: Library of Congress USA"
      ]
    },
    {
      "zadani": {
        "hlavni": "Označte a popište, kde a jak se na fotografiích projevuje chudoba.",
        "rozsirujici": ""
      },
      "napoveda": {
        "aktivity": ["svg"],
        "text": "Kliknutím na snímek levým tlačítkem myši označujete bod. Nakliknutím na bod pravým tlačítkem otevřete menu s nabídkou úkonů: (T) doplnit textový komentář, (X) smazat nakliknutý objekt."
      },
      "svg": {
        "soubory": [
          {
            "id": "svg-1",
            "soubor": "jak-zobrazila-hospodarskou-krizi/pic-00-1024w.jpg",
            "barvy": ["blue"],
            "funkce": ["text", "znacky"]
          },
          {
            "id": "svg-2",
            "soubor": "jak-zobrazila-hospodarskou-krizi/pic-01-1024h.jpg",
            "barvy": ["blue"],
            "funkce": ["text", "znacky"]
          }
        ]
      },
      "popisky": [
        "Portrét Florence Thompson, který fotografovala Dorothea Lange, se proslavil pod názvem „Migrant Mother” a stal se symbolem hospodářské krize. Poté, co byla fotografie zveřejněna v San Francisco News, zaslali místní politici do tábora potraviny. Nyní patří k ikonickým snímkům dějin 20. století. Foto Dorothea Lange. Zdroj: Library of Congress USA"
      ]
    },
    {
      "class": ["half-slide-previous"],
      "zadani": {
        "hlavni": "Pátrejte v dalších pramenech po důvodech, proč se snímek proslavil. Nově zjištěné informace doplňte do fotografie červeně.",
        "rozsirujici": ""
      },
      "napoveda": {
        "aktivity": ["lupa", "svg"],
        "text": "Kliknutím na snímek levým tlačítkem myši označujete bod. Nakliknutím na bod pravým tlačítkem otevřete menu s nabídkou úkonů: (T) doplnit textový komentář, (X) smazat nakliknutý objekt."
      },
      "svg": {
        "nastaveni": {
          "layout": "horizontalni"
        },
        "galerie": [
          {
            "soubor": "jak-zobrazila-hospodarskou-krizi/pic-02-1280w.jpg",
            "popisek": "Vzpomínková poštovní známka z roku 1998, vydaná v rámci kampaně „Celebrate the Century!” poštou USA. Zdroj: United States Postal Service"
          },
          {
            "soubor": "jak-zobrazila-hospodarskou-krizi/pic-03-1280w.jpg",
            "popisek": "Vzpomínková poštovní známka z roku 1998, vydaná v rámci kampaně „Celebrate the Century!” poštou USA. Zdroj: United States Postal Service"
          },
          {
            "soubor": "jak-zobrazila-hospodarskou-krizi/pic-04-1024h.jpg",
            "popisek": "Fotografka Dorothea Lange dokumentovala dopady krize pro státní úřady. Na snímku se svým Fordem 40 v roce 1936. Zdroj: Library of Congress USA"
          },
          {
            "soubor": "jak-zobrazila-hospodarskou-krizi/pic-05-1024h.jpg",
            "popisek": "Leona Šlajchrtová: Novodobá madona v cárech nese utrpení lidstva, peněz se nedočkala. Zdroj: iDNES.cz"
          }
        ],
        "soubory": [
          {
            "id": "svg-3",
            "soubor": "jak-zobrazila-hospodarskou-krizi/pic-01-1024h.jpg",
            "funkce": ["text", "znacky"],
            "barvy": ["red"],
            "duplikovat": ["svg-2"]
          }
        ]
      },
      "popisky": [
        "Portrét Florence Thompson, který fotografovala Dorothea Lange, se proslavil pod názvem „Migrant Mother” a stal se symbolem hospodářské krize. Poté, co byla fotografie zveřejněna v San Francisco News, zaslali místní politici do tábora potraviny. Nyní patří k ikonickým snímkům dějin 20. století. Foto Dorothea Lange. Zdroj: Library of Congress USA"
      ]
    },
    {
      "class": ["half-slide-active"],
      "zadani": {
        "hlavni": "Interpretace.",
        "rozsirujici": ""
      },
      "napoveda": {
        "aktivity": ["text"],
        "text": "Do boxu pro text zapisujete odpověď na otázku, nebo jiný komentář (dle zadání)."
      },
      "uzivatelskyText": {
        "otazky": [
          {
            "id": "text-1",
            "zadani": "Proč se proslavil detailní záběr matky?",
            "instrukce": "Myslím si, že…",
            "minDelka": 10,
            "optimum": 150,
            "maxDelka": 999
          },
          {
            "id": "text-2",
            "zadani": "Jak fotografka ukázala hospodářskou krizi?",
            "instrukce": "Myslím si, že…",
            "minDelka": 10,
            "optimum": 150,
            "maxDelka": 999
          }
        ]
      }
    }
  ]
}
