{
  "cviceni": {
    "version": {
      "global": "<%= version %>",
      "content": 1
    },
    "language": "en",
    "id": 30,
    "slug": "korean-children-at-czech-school",
    "nazev": "Korean Children at Czech School",
    "klicovaSlova": [""],
    "funkce": [
      "text",
      "lupa",
      "svg",
      "kresleni",
      "znacky"
    ],
    "anotace": {
      "ucitel": "",
      "verejna": ""
    },
    "trvani": 0,
    "pdf": {
      "doporucenyPostup": "korean-children-at-czech-school.pdf"
    },
    "uvodniObrazek": "korean-children-at-czech-school/pic-00-1280w.jpg"
  },
  "slajd": [
    {
      "class": [
        "half-slide-previous"
      ],
      "zadani": {
        "hlavni": "Look carefully at the photograph.",
        "rozsirujici": "Mark and describe any details which help you to identify who is in the photograph and when and where was the photograph taken."
      },
      "napoveda": {
        "aktivity": [
          "svg"
        ],
        "text": "Create a dot with left-clicking on the picture below. Right-clicking on the picture opens a menu of operations. A blue dot for a similarity. A red dot for a difference. (T) Caption. (X) Clear the object that you’ve clicked on."
      },
      "svg": {
        "soubory": [
          {
            "id": "svg-1",
            "soubor": "korean-children-at-czech-school/pic-00-1280w.jpg",
            "funkce": [
              "text",
              "znacky"
            ]
          }
        ]
      },
      "popisky": [
        "The Czechoslovak government invited 200 Korean children into Czechoslovakia, and they were then placed at the Houštka baths near the town of Stará Boleslav. Among the children there were even partisan fighters with awards for bravery. For this photo, plan on an hour of teaching time. <br>On the board: We are in Czechoslovakia. We have our second home here. We stay in Stará Boleslav. We like going to school. We learn dilligently. We remember our motherland.<br>(ČTK/Kocian František)"
      ]
    },
    {
      "class": [
        "half-slide-active"
      ],
      "zadani": {
        "hlavni": "Questions.",
        "rozsirujici": "You can look for the answers in other sources — the internet, textbooks, etc."
      },
      "napoveda": {
        "aktivity": [
          "text"
        ],
        "text": ""
      },
      "uzivatelskyText": {
        "otazky": [
          {
            "id": "text-1",
            "zadani": "Using the content of the photo, try to determine when it was taken. Present your arguments.",
            "instrukce": "I think that…",
            "minDelka": 0,
            "maxDelka": 400
          },
          {
            "id": "text-2",
            "zadani": "At that time, what was going on in Czechoslovakia, and what was going on in Korea? Was there anything in common about the situation in both of those countries?",
            "instrukce": "I think that…",
            "minDelka": 0,
            "maxDelka": 400
          },
          {
            "id": "text-3",
            "zadani": "Why did the Korean children come to stay in Czechoslovakia?",
            "instrukce": "I think that…",
            "minDelka": 0,
            "maxDelka": 400
          }
        ]
      }
    },
    {
      "class": [
        "half-slide-previous"
      ],
      "zadani": {
        "hlavni": "What do the characters in the photo think?",
        "rozsirujici": "Come up with that both people are thinking about, and then write it into the photo. Share your “comics” with the rest of the class. Did you agree on what the two protagonists were thinking about?"
      },
      "napoveda": {
        "aktivity": [
          "svg"
        ],
        "text": "Create a dot with left-clicking on the picture below. Right-clicking on the picture opens a menu of operations. A blue dot for a similarity. A red dot for a difference. (T) Caption. (X) Clear the object that you’ve clicked on."
      },
      "svg": {
        "soubory": [
          {
            "id": "svg-2",
            "soubor": "korean-children-at-czech-school/pic-00-1280w.jpg",
            "funkce": [
              "text",
              "kresleni"
            ]
          }
        ]
      },
      "popisky": []
    },
    {
      "class": [
        "half-slide-active"
      ],
      "zadani": {
        "hlavni": "Questions.",
        "rozsirujici": ""
      },
      "napoveda": {
        "aktivity": [
          "text"
        ],
        "text": ""
      },
      "uzivatelskyText": {
        "otazky": [
          {
            "id": "text-4",
            "zadani": "What is new about the situation for both a teacher and a student?",
            "instrukce": "I think that…",
            "minDelka": 0,
            "maxDelka": 400
          },
          {
            "id": "text-5",
            "zadani": "What was the purpose of the photograph in the period press?",
            "instrukce": "I think that…",
            "minDelka": 0,
            "maxDelka": 400
          }
        ]
      }
    }
  ]
}
